{
  "images" : [
    {
      "filename" : "HD-wallpaper-suite-suits-cards-casino-club-diamond-gamble-heart-lucky-spades.jpeg",
      "idiom" : "universal",
      "scale" : "1x"
    },
    {
      "idiom" : "universal",
      "scale" : "2x"
    },
    {
      "idiom" : "universal",
      "scale" : "3x"
    }
  ],
  "info" : {
    "author" : "xcode",
    "version" : 1
  }
}
